Data: 2018-04-15, Tip: sell, Cantitate: 2, Pret: 116000, Instrument: Micro, Broker: 2, Noul fond: 671000
Data: 2018-04-15, Tip: buy, Cantitate: 3, Pret: 1100, Instrument: Carius, Broker: 2, Noul fond: 527100
Data: 2018-04-15, Tip: buy, Cantitate: 8, Pret: 142800, Instrument: Apple, Broker: 2, Noul fond: 527100
Data: 2018-04-15, Tip: buy, Cantitate: 15, Pret: 66000, Instrument: Forex, Broker: 2, Noul fond: 461100
Data: 2018-04-15, Tip: sell, Cantitate: 1, Pret: 4400, Instrument: Forex, Broker: 2, Noul fond: 465500
Data: 2018-04-15, Tip: sell, Cantitate: 1, Pret: 4400, Instrument: Forex, Broker: 2, Noul fond: 469900
